<?xml version="1.0" encoding="UTF-8" standalone="no"?>
<svg width="287px" height="287px" viewBox="0 0 287 287" version="1.1" xmlns="http://www.w3.org/2000/svg" xmlns:xlink="http://www.w3.org/1999/xlink">
    <!-- Generator: Sketch 49.2 (51160) - http://www.bohemiancoding.com/sketch -->
    <title>success</title>
    <desc>Created with Sketch.</desc>
    <defs>
        <linearGradient x1="-16.6726529%" y1="83.1629692%" x2="56.7277184%" y2="108.067175%" id="linearGradient-1">
            <stop stop-color="#00C9FF" offset="0%"></stop>
            <stop stop-color="#92FE9D" offset="100%"></stop>
        </linearGradient>
    </defs>
    <g id="success" stroke="none" stroke-width="1" fill="none" fill-rule="evenodd">
        <g fill="url(#linearGradient-1)" fill-rule="nonzero" id="Shape">
            <path d="M143,0 C64.152,0 0,64.1465 0,143 C0,221.8535 64.152,286 143,286 C221.848,286 286,221.8535 286,143 C286,64.1465 221.848,0 143,0 Z M143,259 C79.0405,259 27,206.9595 27,143 C27,79.0405 79.0405,27 143,27 C206.9595,27 259,79.0405 259,143 C259,206.9595 206.9595,259 143,259 Z"></path>
            <path d="M201.195751,91.5969785 L128.19484,173.722409 L84.2156984,138.540046 C82.1732499,136.901337 79.1760754,137.238579 77.5421166,139.281027 C75.9034079,141.332975 76.2358995,144.32065 78.2830979,145.959359 L125.781901,183.958401 C126.655879,184.656634 127.705603,184.998625 128.750576,184.998625 C130.061543,184.998625 131.36776,184.457139 132.303487,183.402665 L208.301572,97.9048196 C210.044778,95.9478689 209.869032,92.9411947 207.907332,91.2027385 C205.940881,89.4547825 202.943707,89.6305281 201.195751,91.5969785 Z" stroke="url(#linearGradient-1)" stroke-width="15"></path>
        </g>
    </g>
</svg>